struct VS_Copy {
  float4 PosH : SV_POSITION;
  float4 Color : COLOR;
  float2 Tex : TEXCOORD;
  float3 Tangent : TANGENT;
};

Texture2D txDiffuse : register(t0);

SamplerState samLinearSimple : register(s5) {
  Filter = LINEAR;
  AddressU = WRAP;
  AddressV = WRAP;
};

float4 main(VS_Copy pin) : SV_TARGET {
  return pin.Color * txDiffuse.Sample(samLinearSimple, pin.Tex);
}