#include "include/common.hlsl"

Texture2DMS<float> txStatic : register(t0);
Texture2DMS<float> txDynamic : register(t1);

struct VS_Copy {
  float4 PosH : SV_POSITION;
  noperspective float2 Tex : TEXCOORD0;
};

cbuffer cbData : register(b10) {
  float4 gRegion;
  float gExponent;
}

float2 main(VS_Copy pin) : SV_TARGET {
  float2 result = float2(1, 0);
  [unroll]
  for (uint i = 0; i < 4; ++i){
    float s = min(txStatic.Load(pin.PosH.xy, i), txDynamic.Load(pin.PosH.xy, i));
    result.x = min(result.x, s);
    result.y = max(result.y, s);
  }
  return result;
}
