#include "include/common.hlsl"

Texture2DMS<float> txStatic : register(t0);
Texture2DMS<float> txDynamic : register(t1);

struct VS_Copy {
  float4 PosH : SV_POSITION;
  noperspective float2 Tex : TEXCOORD0;
};

cbuffer cbData : register(b10) {
  float4 gRegion;
  float gExponent;
}

float main(VS_Copy pin) : SV_TARGET {
  float result = 0;
  [unroll]
  for (uint i = 0; i < 4; ++i){
    float v = txStatic.Load(pin.PosH.xy, i);
    result += exp(gExponent * v);
  }
  return result / 4;
}
